<?xml version="1.0" encoding="UTF-8" standalone="no"?>
<svg xmlns:dc="http://purl.org/dc/elements/1.1/" xmlns:cc="http://creativecommons.org/ns#" xmlns:rdf="http://www.w3.org/1999/02/22-rdf-syntax-ns#" xmlns:svg="http://www.w3.org/2000/svg" xmlns="http://www.w3.org/2000/svg" viewBox="0 0 278.74667 30.973333" height="30.973333" width="278.74667" xml:space="preserve" id="svg2" version="1.1">
	<metadata id="metadata8">
		<rdf:RDF>
			<cc:Work rdf:about="">
				<dc:format>image/svg+xml</dc:format>
				<dc:type rdf:resource="http://purl.org/dc/dcmitype/StillImage" />
			</cc:Work>
		</rdf:RDF>
	</metadata>
	<defs id="defs6" />
	<g transform="matrix(1.3333333,0,0,-1.3333333,0,30.973333)" id="g10">
		<g transform="scale(0.1)" id="g12">
			<path id="path14" style="fill:#181210;fill-opacity:1;fill-rule:nonzero;stroke:none" d="m 1342.1,6.875 c -2.32,-2.15625 -7.11,-6.554687 -16.63,-6.554687 -15.76,0 -25.42,12.792987 -25.42,29.425787 0,18.1523 11.74,30.2266 27.82,30.2266 14.95,0 22.23,-9.6016 24.86,-13.0391 l -10.71,-6.4727 c -2,3.0352 -5.27,7.9961 -13.12,7.9961 -10.71,0 -14.78,-8.8789 -14.78,-18.3086 0,-6.3984 1.76,-11.5937 4.47,-14.3945 2.16,-2.3164 6,-4.0742 10.31,-4.0742 2.56,0 5.44,0.6328 7.77,2.1601 3.67,2.3907 4.15,5.4297 4.55,8.3868 h -12.63 v 10.7109 h 24.54 V 1.60156 H 1342.1 V 6.875" />
			<path id="path16" style="fill:#181210;fill-opacity:1;fill-rule:nonzero;stroke:none" d="m 1447.21,73.2422 v -9.2774 h -12.87 v 9.2774 z m -5.83,-29.3438 c -2.4,2.5547 -6.07,4.1602 -9.91,4.1602 -8.56,0 -13.99,-7.5234 -13.99,-17.7539 0,-13.4297 7.51,-18.3906 14.15,-18.3906 6.72,0 13.91,4.7968 14.31,16.6328 0.24,5.9179 -1.36,11.914 -4.56,15.3515 z m -24.78,29.3438 h 12.79 V 63.8867 H 1416.6 Z M 1431.63,0 c -17.91,0 -28.07,13.7617 -28.07,30.0664 0,15.2774 9.68,29.7461 27.82,29.7461 3.36,0 6.88,-0.4883 10.33,-1.6758 17.26,-5.9961 18.39,-24.7969 18.39,-28.6328 0,-9.7461 -4.49,-18.5469 -10.72,-23.58593 C 1443.87,1.35547 1437.47,0 1431.63,0" />
			<path id="path18" style="fill:#181210;fill-opacity:1;fill-rule:nonzero;stroke:none" d="m 1507.49,58.1367 h 43.49 V 46.9336 h -14.63 V 1.60156 H 1522.2 V 46.9336 h -14.71 v 11.2031" />
			<path id="path20" style="fill:#181210;fill-opacity:1;fill-rule:nonzero;stroke:none" d="m 1600.68,58.0469 h 41.74 V 47.1016 h -27.67 V 36.8633 h 25.83 v -10.711 h -25.83 V 12.7148 h 30.15 V 1.60156 h -44.22 V 58.0469" />
			<path id="path22" style="fill:#181210;fill-opacity:1;fill-rule:nonzero;stroke:none" d="M 1709.15,25.5078 V 11.8359 h 9.84 c 4.72,0.0782 10.87,0.2422 10.87,6.7188 0,6.7969 -5.59,6.875 -8.48,6.9531 z m 0,21.9922 V 35.7422 h 10.63 c 3.21,0.0781 8.4,0.2422 8.4,6.0742 0,5.4414 -4.72,5.6836 -7.43,5.6836 z m -13.43,10.5469 h 21.83 c 5.91,0 11.28,-0.2344 14.71,-1.3594 6.96,-2.2344 9.76,-7.75 9.76,-13.1133 0,-3.039 -0.8,-4.875 -1.05,-5.4297 -2.55,-5.7617 -7.99,-6.875 -11.03,-7.5195 3.44,-0.5586 8,-1.2773 11.11,-4.7969 2,-2.1562 3.13,-5.2812 3.13,-8.4726 0,-4.3946 -2.33,-10.55862 -9.36,-13.67191 -4.24,-1.83593 -8.8,-2.08203 -15.27,-2.08203 h -23.83 V 58.0469" />
			<path id="path24" style="fill:#181210;fill-opacity:1;fill-rule:nonzero;stroke:none" d="m 1831.46,43.8984 c -2.4,2.5547 -6.07,4.1602 -9.91,4.1602 -8.56,0 -13.99,-7.5234 -13.99,-17.7539 0,-13.4297 7.51,-18.3906 14.15,-18.3906 6.72,0 13.91,4.7968 14.3,16.6328 0.25,5.9179 -1.35,11.914 -4.55,15.3515 z M 1821.71,0 c -17.91,0 -28.07,13.7617 -28.07,30.0664 0,15.2774 9.68,29.7461 27.82,29.7461 3.36,0 6.88,-0.4883 10.32,-1.6758 17.27,-5.9961 18.39,-24.7969 18.39,-28.6328 0,-9.7461 -4.48,-18.5469 -10.71,-23.58593 C 1833.94,1.35547 1827.55,0 1821.71,0" />
			<path id="path26" style="fill:#181210;fill-opacity:1;fill-rule:nonzero;stroke:none" d="M 1916.51,47.5 V 32.2266 h 11.67 c 2,0.0781 8.48,0.2343 8.48,7.7539 0,7.1992 -5.2,7.4297 -8.16,7.5195 z m -14.15,10.5469 h 25.42 c 5.92,-0.0781 13.28,-0.1563 18.48,-5.75 2.63,-2.961 4.47,-7.4414 4.47,-12.5625 0,-11.3438 -7.75,-14.1485 -11.59,-15.586 l 13.04,-22.54684 h -15.6 l -11.19,20.14454 h -8.88 V 1.60156 h -14.15 V 58.0469" />
			<path id="path28" style="fill:#181210;fill-opacity:1;fill-rule:nonzero;stroke:none" d="m 2042.25,6.875 c -2.31,-2.15625 -7.11,-6.554687 -16.63,-6.554687 -15.75,0 -25.42,12.792987 -25.42,29.425787 0,18.1523 11.75,30.2266 27.83,30.2266 14.95,0 22.22,-9.6016 24.86,-13.0391 l -10.71,-6.4727 c -2.01,3.0352 -5.28,7.9961 -13.12,7.9961 -10.71,0 -14.78,-8.8789 -14.78,-18.3086 0,-6.3984 1.75,-11.5937 4.47,-14.3945 2.16,-2.3164 5.99,-4.0742 10.31,-4.0742 2.56,0 5.44,0.6328 7.76,2.1601 3.68,2.3907 4.15,5.4297 4.55,8.3868 h -12.62 v 10.7109 h 24.54 V 1.60156 h -11.04 V 6.875" />
			<path id="path30" style="fill:#181210;fill-opacity:1;fill-rule:nonzero;stroke:none" d="m 490.418,109.457 h 8.34 c 11.191,0 12.41,1.828 12.41,11.82 v 77.2 c 0,9.98 -1.219,11.808 -12.41,11.808 h -8.34 v 17.93 h 80.559 v -17.93 h -8.34 c -11.188,0 -12.61,-1.828 -12.61,-11.808 v -77.2 c 0,-9.992 1.422,-11.82 12.61,-11.82 h 8.34 V 91.5273 h -80.559 v 17.9297" />
			<path id="path32" style="fill:#181210;fill-opacity:1;fill-rule:nonzero;stroke:none" d="m 712.352,175.453 h -18.508 c 0,23.434 -8.543,34.434 -27.051,34.434 h -2.039 v -84.133 -2.649 c 0,-7.332 0.199,-11.199 3.258,-12.218 3.648,-1.434 9.761,-1.633 18.301,-1.84 V 91.5352 h -80.961 v 17.5118 c 8.539,0 14.652,0.617 18.511,1.84 3.047,1.019 3.258,4.886 3.258,12.019 v 2.641 84.34 h -2.039 c -18.512,0 -27.262,-11 -27.262,-34.434 h -18.308 v 52.762 h 132.84 v -52.762" />
			<path id="path34" style="fill:#181210;fill-opacity:1;fill-rule:nonzero;stroke:none" d="M 699.789,154.879 H 757.16 V 124.32 h -57.371 v 30.559" />
			<path id="path36" style="fill:#181210;fill-opacity:1;fill-rule:nonzero;stroke:none" d="m 890.977,100.492 c -13.418,-8.7576 -27.461,-13.0389 -43.129,-13.0389 -41.5,0 -68.141,27.0899 -68.141,70.4809 0,44.609 28.469,74.347 68.961,74.347 14.848,0 27.66,-4.066 39.867,-12.629 l 3.461,9.993 h 18.711 v -55 h -19.519 c -2.852,25.257 -14.04,37.277 -35,37.277 -20.95,0 -32.141,-16.707 -32.141,-49.508 0,-37.07 8.75,-54.793 31.332,-54.793 16.476,0 20.75,5.094 20.75,18.332 v 9.578 c 0,8.762 -0.613,10.59 -9.762,10.59 h -9.98 v 17.934 h 74.461 v -17.934 h -7.321 c -7.121,0 -9.359,-2.039 -9.359,-9.168 V 90.1016 h -18.102 l -5.089,10.3904" />
			<path id="path38" style="fill:#181210;fill-opacity:1;fill-rule:nonzero;stroke:none" d="m 1035.79,109.051 h 9.56 V 91.5313 h -82.377 v 17.5197 h 9.558 c 10.782,0 12.809,1.629 12.809,13.847 v 25.063 l -29.899,46.848 c -6.511,10.179 -12.211,15.679 -26.242,16.089 v 17.313 h 78.111 v -17.313 h -6.51 c -5.691,0 -8.538,-1.628 -8.538,-5.089 0,-1.84 1.621,-4.688 4.679,-9.368 l 15.869,-24.652 18.51,27.91 c 1.83,2.641 2.44,5.09 2.44,6.922 0,3.059 -3.46,4.277 -10.78,4.277 h -3.26 v 17.313 h 57.78 v -17.313 h -0.61 c -13.02,0 -17.5,-5.91 -23.81,-16.089 l -29.9,-46.848 v -25.063 c 0,-12.218 1.83,-13.847 12.61,-13.847" />
			<path id="path40" style="fill:#181210;fill-opacity:1;fill-rule:nonzero;stroke:none" d="m 1141.57,109.457 h 3.87 V 91.5273 h -58.39 v 17.9297 h 6.72 c 11.18,0 12.61,1.828 12.61,11.82 v 77.2 c 0,9.98 -1.43,11.808 -12.61,11.808 h -6.72 v 17.93 h 71.61 l 23.8,-84.129 25.02,84.129 h 71 v -17.93 h -6.92 c -11.19,0 -12.61,-1.828 -12.61,-11.808 v -77.2 c 0,-9.992 1.42,-11.82 12.61,-11.82 h 6.92 V 91.5273 h -71.61 v 17.9297 h 4.07 c 11.19,0 12.41,1.828 12.41,11.82 v 85.348 L 1189.38,91.5273 h -27.47 l -32.95,115.2967 v -85.547 c 0,-9.992 1.42,-11.82 12.61,-11.82" />
			<path id="path42" style="fill:#181210;fill-opacity:1;fill-rule:nonzero;stroke:none" d="m 1293.33,210.289 h -7.12 v 17.93 h 65.3 l 52.28,-95.34 v 65.598 c 0,9.98 -1.42,11.812 -12.61,11.812 h -7.73 v 17.93 h 62.25 v -17.93 h -6.31 c -11.19,0 -12.61,-1.832 -12.61,-11.812 V 91.5273 h -41.91 L 1328.93,193.18 v -71.91 c 0,-9.981 1.42,-11.813 12.61,-11.813 h 7.73 V 91.5273 h -63.06 v 17.9297 h 7.12 c 11.19,0 12.61,1.832 12.61,11.813 v 77.207 c 0,9.98 -1.42,11.812 -12.61,11.812" />
			<path id="path44" style="fill:#181210;fill-opacity:1;fill-rule:nonzero;stroke:none" d="m 1435.93,109.457 h 4.88 c 10.99,0 12.61,3.668 15.86,13.238 l 35,105.52 h 40.68 l 33.57,-106.129 c 3.05,-9.371 5.49,-12.629 14.03,-12.629 h 6.92 V 91.5273 h -75.27 v 17.9297 h 5.7 c 8.95,0 12.4,0.82 12.4,4.891 0,1.218 -0.61,2.648 -1.01,4.277 l -5.29,16.902 h -39.26 l -5.08,-15.679 c -0.82,-2.442 -1.02,-4.481 -1.02,-5.5 0,-4.282 3.04,-4.891 10.98,-4.891 h 6.71 V 91.5273 h -59.8 z m 68.15,86.981 -14.04,-43.18 h 27.66 z" />
			<path id="path46" style="fill:#181210;fill-opacity:1;fill-rule:nonzero;stroke:none" d="m 1594.8,89.6953 v 53.7817 h 18.31 c 3.25,-22.211 20.14,-36.059 42.31,-36.059 15.67,0 24.61,6.52 24.61,16.301 0,13.437 -12,14.457 -30.5,18.937 -18.73,4.481 -33.17,7.949 -43.14,15.891 -8.94,7.129 -13.83,17.109 -13.83,29.332 0,27.297 19.94,43.598 55.54,43.598 17.08,0 30.71,-3.469 41.09,-11.411 l 4.07,9.571 h 16.89 v -49.899 h -18.72 c -2.45,20.367 -17.7,32.379 -40.28,32.379 -14.24,0 -22.18,-6.512 -22.18,-15.879 0,-13.25 15.06,-12.84 43.13,-19.761 30.51,-7.539 45.16,-20.981 45.16,-44.61 0,-26.691 -21.15,-44.41 -56.55,-44.41 -17.29,0 -33.98,5.0899 -43.94,12.2188 l -5.49,-9.9805 h -16.48" />
			<path id="path48" style="fill:#181210;fill-opacity:1;fill-rule:nonzero;stroke:none" d="m 1726.63,109.457 h 8.34 c 11.18,0 12.4,1.828 12.4,11.82 v 77.2 c 0,9.98 -1.22,11.808 -12.4,11.808 h -8.34 v 17.93 h 80.55 v -17.93 h -8.34 c -11.18,0 -12.61,-1.828 -12.61,-11.808 v -77.2 c 0,-9.992 1.43,-11.82 12.61,-11.82 h 8.34 V 91.5273 h -80.55 v 17.9297" />
			<path id="path50" style="fill:#181210;fill-opacity:1;fill-rule:nonzero;stroke:none" d="m 1815.32,109.457 h 7.52 c 11.2,0 12.41,1.828 12.41,11.82 v 77.2 c 0,9.98 -1.21,11.808 -12.41,11.808 h -7.52 v 17.93 h 134.87 v -52.149 h -17.9 c -1.83,13.239 -4.06,22.2 -9.97,27.7 -6.71,6.32 -16.47,6.519 -31.12,6.519 h -17.7 v -38.898 h 3.46 c 15.26,0 18.91,4.48 18.91,21.59 h 17.1 v -62.332 h -17.1 c -0.4,19.351 -3.45,22.812 -18.91,22.812 h -3.46 v -44 h 18.31 c 28.68,0 37.43,6.52 40.48,38.5 h 17.9 V 91.5273 h -134.87 v 17.9297" />
			<path id="path52" style="fill:#181210;fill-opacity:1;fill-rule:nonzero;stroke:none" d="m 2090.55,175.453 h -18.51 c 0,23.434 -8.55,34.434 -27.06,34.434 h -2.03 v -84.133 -2.649 c 0,-7.332 0.2,-11.199 3.26,-12.218 3.65,-1.434 9.76,-1.633 18.3,-1.84 V 91.5352 h -80.96 v 17.5118 c 8.54,0 14.65,0.617 18.51,1.84 3.05,1.019 3.25,4.886 3.25,12.019 v 2.641 84.34 h -2.03 c -18.51,0 -27.26,-11 -27.26,-34.434 h -18.31 v 52.762 h 132.84 v -52.762" />
			<path id="path54" style="fill:#429cd5;fill-opacity:1;fill-rule:nonzero;stroke:none" d="M 0,89.5 H 142.59 V 232.289 H 0 V 89.5" />
			<path id="path56" style="fill:#e5067d;fill-opacity:1;fill-rule:nonzero;stroke:none" d="M 160.469,89.5 H 303.07 V 232.289 H 160.469 V 89.5" />
			<path id="path58" style="fill:#f28513;fill-opacity:1;fill-rule:nonzero;stroke:none" d="m 320.949,89.5 h 142.59 V 232.289 H 320.949 V 89.5" />
		</g>
	</g>
</svg>